Process 19973 launched: '/home/andrej/Documents/Projects/openmc173/openmc173' (x86_64)
Creating logger with severity DEBUG.
17:30:30.374  i  omc173.main Loading SDL2...
17:30:30.396  i  omc173.main Initializing SDL2...
17:30:31.155  i  omc173.main Creating window...
17:30:31.172  i  omc173.main Creating rendering context...
17:30:31.187  i  omc173.main Enabling adaptive VSync...
17:30:31.187  i  omc173.main Could not enable adaptive VSync, falling back on regular VSync...
17:30:31.187  i  omc173.main Initializing OpenGL...
17:30:31.187  i  omc173.main Setting debug message callback...
17:30:31.187  i  omc173.main OpenGL level: 3.3
17:30:31.187  i  omc173.resources.shader Loading shader sources...
17:30:31.187  i  omc173.resources.shader Compiling shaders...
17:30:31.187  d  omc173.resources.shader Compiling cube.vert...
17:30:31.190  d  omc173.resources.shader Compiling cube.frag...
17:30:31.190  d  omc173.resources.shader Created GL program for "cube" with ID 3
17:30:31.190  d  omc173.resources.shader 7FFFF01AF450
17:30:31.190  d  omc173.resources.shader 7FFFF01AF5C0
17:30:31.190  d  omc173.resources.shader Compiling 2D.vert...
17:30:31.191  i  omc173.debugging Received message from OpenGL:
           "  i  omc173.debugging       source:     SHADER COMPILER
           "  i  omc173.debugging       type:       ERROR
           "  i  omc173.debugging       id:         0x1
           "  i  omc173.debugging       severity:   HIGH
           "  i  omc173.debugging       message:    0:24(27): error: `pos' undeclared
17:30:31.191  W  omc173.debugging Program will quit after current game loop.
17:30:31.191  i  omc173.debugging Received message from OpenGL:
           "  i  omc173.debugging       source:     SHADER COMPILER
           "  i  omc173.debugging       type:       ERROR
           "  i  omc173.debugging       id:         0x2
           "  i  omc173.debugging       severity:   HIGH
           "  i  omc173.debugging       message:    0:24(22): error: cannot construct `vec4' from a non-numeric data type
17:30:31.191  W  omc173.debugging Program will quit after current game loop.
17:30:31.191  i  omc173.debugging Received message from OpenGL:
           "  i  omc173.debugging       source:     SHADER COMPILER
           "  i  omc173.debugging       type:       ERROR
           "  i  omc173.debugging       id:         0x3
           "  i  omc173.debugging       severity:   HIGH
           "  i  omc173.debugging       message:    0:24(16): error: operands to arithmetic operators must be numeric
17:30:31.191  W  omc173.debugging Program will quit after current game loop.
17:30:31.191  E  omc173.resources.shader ERROR: Error compiling shader `2D.vert`:
17:30:31.191  E  omc173.resources.shader 0:24(27): error: `pos' undeclared
           "  E  omc173.resources.shader 0:24(22): error: cannot construct `vec4' from a non-numeric data type
           "  E  omc173.resources.shader 0:24(16): error: operands to arithmetic operators must be numeric
object.Exception@source/omc173/resources/shader.d(254): Error compiling shader.`2D.vert`.
----------------error: need to add support for DW_TAG_base_type 'immutable(char)' encoded with DW_ATE = 0x10, bit_size = 8
Process 19973 stopped
* thread #22, name = 'openmc173:sh3', stop reason = signal SIGSEGV: invalid address (fault address: 0x0)
    frame #0: 0x00005555555cc427 openmc173`_D6omc1737logging3log3Log9commonLogFAyaEQBmQBi10severities8SeverityQBfZv(modul=(length = 16, ptr = 0x0000555555654da0), severity=INFO, message=<unavailable>) at log.d:110:21
   107                  bool printingFirst = true;
   108                  foreach (string line; splitLines(message).filter!(e => !e.empty))
   109                  {
-> 110                      output.log(currTime, modul, severity, line, !printingFirst);
   111                      printingFirst = false;
   112                  }
   113              }
(lldb) quit
Quitting LLDB will kill one or more processes. Do you really want to proceed: [Y/n]
